127.0.0.1 - - [12/Mar/2015:10:38:38 +0100] "GET /AnnotZoom/MedAnnoHTML5offline.html HTTP/1.1" 404 1060
127.0.0.1 - - [12/Mar/2015:10:38:38 +0100] "GET /AnnotZoom/VideoLoonOffline.html HTTP/1.1" 404 1054
127.0.0.1 - - [12/Mar/2015:10:38:38 +0100] "GET /favicon.ico HTTP/1.1" 404 1014
127.0.0.1 - - [12/Mar/2015:10:38:38 +0100] "GET /favicon.ico HTTP/1.1" 404 1014
127.0.0.1 - - [12/Mar/2015:10:38:38 +0100] "GET /AnnotZoom/VideoLoonOffline.html HTTP/1.1" 404 1054
127.0.0.1 - - [12/Mar/2015:10:38:38 +0100] "GET /AnnotZoom/MedAnnoHTML5offline.html HTTP/1.1" 404 1060
127.0.0.1 - - [12/Mar/2015:10:38:38 +0100] "GET /apple-touch-icon-precomposed.png HTTP/1.1" 404 1056
127.0.0.1 - - [12/Mar/2015:10:38:38 +0100] "GET /apple-touch-icon.png HTTP/1.1" 404 1032
127.0.0.1 - - [12/Mar/2015:10:38:38 +0100] "GET /apple-touch-icon-precomposed.png HTTP/1.1" 404 1056
127.0.0.1 - - [12/Mar/2015:10:38:38 +0100] "GET /apple-touch-icon.png HTTP/1.1" 404 1032
